…
    DBInterface.execute(conn, q) |> DataFrame
    #=>
    25×3 DataFrame
     Row │ person_id  start_date  end_date
         │ Int64      String      String
    ─────┼───────────────────────────────────
       1 │      1780  2008-04-09  2008-04-13
       2 │      1780  2008-11-22  2008-11-22
       3 │      1780  2009-05-22  2009-05-22
       4 │     30091  2008-11-12  2008-11-12
       5 │     30091  2009-07-30  2009-08-07
       6 │     37455  2008-03-18  2008-03-18
       7 │     37455  2008-10-30  2008-10-30
       8 │     37455  2010-08-12  2010-08-12
      ⋮  │     ⋮          ⋮           ⋮
      19 │     95538  2009-09-02  2009-09-02
      20 │    107680  2009-06-07  2009-06-07
      21 │    107680  2009-07-20  2009-07-30
      22 │    110862  2008-09-07  2008-09-16
      23 │    110862  2009-06-30  2009-06-30
      24 │    110862  2009-09-30  2009-10-01
      25 │    110862  2010-06-07  2010-06-07
                              10 rows omitted
…
