…
    sql = render(q)
    print(sql)
    #=>
    SELECT "person_1"."person_id"
    FROM "person" AS "person_1"
    WHERE ("person_1"."year_of_birth" > 1980)
    =#

    res = DBInterface.execute(db, sql)

    DataFrame(res)
    #=>
    86×1 DataFrame
     Row │ PERSON_ID
         │ Float64
    ─────┼───────────
       1 │     124.0
       2 │     235.0
       3 │     339.0
       4 │     249.0
       5 │     141.0
       6 │     220.0
       7 │     471.0
       8 │     362.0
      ⋮  │     ⋮
      80 │    4408.0
      81 │    4457.0
      82 │    4781.0
      83 │    4816.0
      84 │    4606.0
      85 │    5343.0
      86 │    5007.0
      71 rows omitted
    =#

We can define a convenience function.

    function run(db, q)
        sql = render(q, dialect = :sqlite)
        res = DBInterface.execute(db, sql)
        DataFrame(res)
    end

    run(db, q)
    #=>
    86×1 DataFrame
     Row │ PERSON_ID
         │ Float64
    ─────┼───────────
       1 │     124.0
       2 │     235.0
       3 │     339.0
       4 │     249.0
       5 │     141.0
       6 │     220.0
       7 │     471.0
       8 │     362.0
      ⋮  │     ⋮
      80 │    4408.0
      81 │    4457.0
      82 │    4781.0
      83 │    4816.0
      84 │    4606.0
      85 │    5343.0
      86 │    5007.0
      71 rows omitted
…
