…
    DBInterface.execute(conn, q) |> DataFrame
    #=>
    53×5 DataFrame
     Row │ visit_occurrence_id  person_id  provider_id  type       date
         │ Int64                Int64      Int64        String     String
    ─────┼────────────────────────────────────────────────────────────────────
       1 │               88179       1780         5247  visit      2008-04-09
       2 │               88246       1780        61112  visit      2008-04-10
       3 │               88246       1780        61112  condition  2008-04-10
       4 │               88214       1780        12674  visit      2008-11-22
       5 │               88214       1780        12674  condition  2008-11-22
       6 │               88263       1780        61118  visit      2009-05-22
       7 │               88263       1780        61118  condition  2009-05-22
       8 │             1454922      30091        36303  visit      2008-11-12
      ⋮  │          ⋮               ⋮           ⋮           ⋮          ⋮
      47 │             5314671     110862         5159  condition  2008-09-07
      48 │             5314690     110862        31906  visit      2009-06-30
      49 │             5314690     110862        31906  condition  2009-06-30
      50 │             5314664     110862        31857  visit      2009-09-30
      51 │             5314664     110862        31857  condition  2009-09-30
      52 │             5314696     110862       192777  visit      2010-06-07
      53 │             5314696     110862       192777  condition  2010-06-07
                                                               38 rows omitted
…
